[gd_resource type="ShaderMaterial" load_steps=2 format=3 uid="uid://byawf0x5w5pfn"]

[sub_resource type="Shader" id="1"]
code = "shader_type canvas_item;

uniform vec4 flashColor: source_color = vec4(1.0);
uniform float flashModifier: hint_range(0.0, 1.0) = 1;

void fragment() {
	vec4 color = texture(TEXTURE, UV);
	color.rgb = mix(color.rgb, flashColor.rgb, flashModifier);

	COLOR = color;
}"

[resource]
resource_local_to_scene = true
shader = SubResource("1")
shader_parameter/flashColor = Color(0.454902, 0.00392157, 0, 1)
shader_parameter/flashModifier = 0.0
